{
    "type": "object",
    "title": "parameters",
    "required": [
        "user",
        "sftp_url",
        "#password",
        "enclosure",
        "destination"
    ],
    "properties": {
        "user": {
            "type": "string",
            "title": "FTP Username",
            "default": "",
            "propertyOrder": 3
        },
        "sftp_url": {
            "type": "string",
            "title": "FTP URL",
            "default": "ftp.fourth.com",
            "propertyOrder": 1
        },
        "#password": {
            "type": "string",
            "title": "FTP Password",
            "default": "",
            "propertyOrder": 4
        },
        "enclosure": {
            "enum": [
                "YES",
                "NO"
            ],
            "type": "string",
            "title": "Use enclosure symbol for strings",
            "default": "NO",
            "propertyOrder": 5
        },
        "destination": {
            "type": "string",
            "title": "Destination folder",
            "default": "/",
            "propertyOrder": 2
        }
    }
}